Video as Data & Documentation
…
## [1] "tmp/254-14514-63635-2019-05-21-1150-15.csv"

# Load CSV and print out
dv_fn <- list.files(dv_dir, '\\.csv$', full.names = TRUE)
(vol_254_14514_dv <- read_csv(dv_fn))

## Parsed with column specification:
## cols(
##   code = col_character(),
##   onset = col_time(format = ""),
##   offset = col_time(format = ""),
##   code.value = col_character()
## )

## # A tibble: 6,145 x 4
##    code       onset  offset code.value                   
##    <chr>      <time> <time> <chr>                        
##  1 transcribe 00'03" 00'03" m,hi                         
##  2 transcribe 00'06" 00'07" m,you have to keep that on   
##  3 transcribe 00'07" 00'08" m,ok?                        
##  4 transcribe 00'09" 00'10" m,you wanna play with mickey?
##  5 transcribe 00'18" 00'19" b,what                       
##  6 transcribe 00'20" 00'20" b,b                          
##  7 transcribe 00'22" 00'23" b,b                          
##  8 transcribe 00'23" 00'24" b,b                          
##  9 transcribe 00'24" 00'25" m,thats not mickey           
## 10 transcribe 00'25" 00'26" m,wheres mickey?             
## # … with 6,135 more rows
…
